<?xml version="1.0" encoding="utf-8"?>
<!-- Generator: Adobe Illustrator 26.0.1, SVG Export Plug-In . SVG Version: 6.00 Build 0)  -->
<svg version="1.1" id="Layer_1" xmlns="http://www.w3.org/2000/svg" xmlns:xlink="http://www.w3.org/1999/xlink" x="0px" y="0px"
	 viewBox="0 0 204 52" style="enable-background:new 0 0 204 52;" xml:space="preserve">
<style type="text/css">
	.st0{fill-rule:evenodd;clip-rule:evenodd;fill:#FF0000;}
	.st1{filter:url(#Adobe_OpacityMaskFilter);}
	.st2{fill-rule:evenodd;clip-rule:evenodd;fill:#FFFFFF;}
	.st3{mask:url(#mask-2_00000116919877449472247430000014956950313595822996_);fill-rule:evenodd;clip-rule:evenodd;fill:#FF0000;}
	.st4{filter:url(#Adobe_OpacityMaskFilter_00000156577418206338078130000004584471453320726926_);}
	.st5{mask:url(#mask-2_00000089546449403822901650000003331253934080856706_);fill-rule:evenodd;clip-rule:evenodd;fill:#FF0000;}
	.st6{filter:url(#Adobe_OpacityMaskFilter_00000052787668723101133340000006867628806174214316_);}
	.st7{mask:url(#mask-2_00000094601085183335825550000001036050747669976732_);fill-rule:evenodd;clip-rule:evenodd;fill:#FF0000;}
	.st8{filter:url(#Adobe_OpacityMaskFilter_00000079453773827517964070000006748500625769235330_);}
	.st9{mask:url(#mask-2_00000128477229908500990990000003616152661559391155_);fill-rule:evenodd;clip-rule:evenodd;fill:#FF0000;}
	.st10{filter:url(#Adobe_OpacityMaskFilter_00000031904769901244212130000014721505046338836643_);}
	.st11{mask:url(#mask-2_00000168097095987854112310000002957149123861385899_);fill-rule:evenodd;clip-rule:evenodd;fill:#FF0000;}
	.st12{filter:url(#Adobe_OpacityMaskFilter_00000060719959422287630390000005719249710512688783_);}
	.st13{mask:url(#mask-2_00000127018845653668757620000013563697645538491013_);fill-rule:evenodd;clip-rule:evenodd;fill:#FF0000;}
	.st14{filter:url(#Adobe_OpacityMaskFilter_00000123411843673617562720000012210973835552607389_);}
	.st15{mask:url(#mask-2_00000142166242412171178170000016981093060338226562_);fill-rule:evenodd;clip-rule:evenodd;fill:#FF0000;}
	.st16{filter:url(#Adobe_OpacityMaskFilter_00000132798114536225636530000008100304262702320044_);}
	.st17{mask:url(#mask-2_00000068645636992404491480000009164637738535201705_);fill-rule:evenodd;clip-rule:evenodd;fill:#FF0000;}
	.st18{filter:url(#Adobe_OpacityMaskFilter_00000062155256747160925230000009612716512144862105_);}
	.st19{mask:url(#mask-2_00000043431913073475973170000005082535927110320805_);fill-rule:evenodd;clip-rule:evenodd;fill:#FF0000;}
	.st20{filter:url(#Adobe_OpacityMaskFilter_00000053512541372772904920000009224123546106771096_);}
	.st21{mask:url(#mask-2_00000183235277802554767720000007254206642446526850_);fill-rule:evenodd;clip-rule:evenodd;fill:#FF0000;}
</style>
<desc>Created with Sketch.</desc>
<g id="Page-1">
	<g id="logo_final_secondaryred" transform="translate(-320.000000, -272.000000)">
		<g id="Group-214" transform="translate(0.000000, -0.720000)">
			<path id="Fill-197" class="st0" d="M348.6,273.8l-5.2,5.2h1.7c4.7,0,8.5,3.8,8.5,8.5c0,4.7-3.8,8.5-8.5,8.5h-18.7l-5.7,5.7v22.7
				l5.7-5.7v-17h18.7c7.8,0,14.2-6.3,14.2-14.2C359.3,280.9,354.8,275.4,348.6,273.8"/>
			<polygon id="Fill-199" class="st0" points="326.5,284.7 321.5,284.7 326.4,279 337.8,279 343.4,273.3 320.8,273.3 320.8,279 
				320.8,296 332.1,284.7 			"/>
			<path id="Fill-201" class="st0" d="M395.1,285.4c4,0,6.7-2.1,6.7-5.3V280c0-3.4-2.6-5.2-6.5-5.2h-6.1v10.6H395.1z M387.6,273.3
				h7.8c4.7,0,8,2.4,8,6.6v0.1c0,4.5-3.9,6.9-8.4,6.9h-5.8v8h-1.6V273.3z"/>
			<g id="Clip-204">
			</g>
			<defs>
				<filter id="Adobe_OpacityMaskFilter" filterUnits="userSpaceOnUse" x="409.9" y="273.3" width="1.6" height="21.5">
					<feColorMatrix  type="matrix" values="1 0 0 0 0  0 1 0 0 0  0 0 1 0 0  0 0 0 1 0"/>
				</filter>
			</defs>
			
				<mask maskUnits="userSpaceOnUse" x="409.9" y="273.3" width="1.6" height="21.5" id="mask-2_00000116919877449472247430000014956950313595822996_">
				<g class="st1">
					<polygon id="path-1_00000094608554158527922570000015043306799107272094_" class="st2" points="0,596 841.9,596 841.9,0.7 
						0,0.7 					"/>
				</g>
			</mask>
			<polygon id="Fill-203" class="st3" points="409.9,294.9 411.5,294.9 411.5,273.3 409.9,273.3 			"/>
			<defs>
				
					<filter id="Adobe_OpacityMaskFilter_00000138548616573064629690000010449321786326718344_" filterUnits="userSpaceOnUse" x="418.8" y="273.3" width="19.1" height="21.5">
					<feColorMatrix  type="matrix" values="1 0 0 0 0  0 1 0 0 0  0 0 1 0 0  0 0 0 1 0"/>
				</filter>
			</defs>
			
				<mask maskUnits="userSpaceOnUse" x="418.8" y="273.3" width="19.1" height="21.5" id="mask-2_00000089546449403822901650000003331253934080856706_">
				<g style="filter:url(#Adobe_OpacityMaskFilter_00000138548616573064629690000010449321786326718344_);">
					<polygon id="path-1_00000176735118489709082490000005801108688442964369_" class="st2" points="0,596 841.9,596 841.9,0.7 
						0,0.7 					"/>
				</g>
			</mask>
			<polygon id="Fill-205" class="st5" points="437.6,273.3 429.3,283.9 437.9,294.9 436,294.9 428.4,284.9 420.7,294.9 418.8,294.9 
				427.4,283.9 419.2,273.3 421.1,273.3 428.4,282.8 435.7,273.3 			"/>
			<defs>
				
					<filter id="Adobe_OpacityMaskFilter_00000096020728608262417360000002620988804774829742_" filterUnits="userSpaceOnUse" x="445.3" y="273.3" width="15.5" height="21.5">
					<feColorMatrix  type="matrix" values="1 0 0 0 0  0 1 0 0 0  0 0 1 0 0  0 0 0 1 0"/>
				</filter>
			</defs>
			
				<mask maskUnits="userSpaceOnUse" x="445.3" y="273.3" width="15.5" height="21.5" id="mask-2_00000094601085183335825550000001036050747669976732_">
				<g style="filter:url(#Adobe_OpacityMaskFilter_00000096020728608262417360000002620988804774829742_);">
					<polygon id="path-1_00000066477542449202107900000001777877239169218999_" class="st2" points="0,596 841.9,596 841.9,0.7 
						0,0.7 					"/>
				</g>
			</mask>
			<polygon id="Fill-206" class="st7" points="445.3,273.3 460.6,273.3 460.6,274.8 446.9,274.8 446.9,283.3 459.2,283.3 
				459.2,284.7 446.9,284.7 446.9,293.4 460.7,293.4 460.7,294.9 445.3,294.9 			"/>
			<defs>
				
					<filter id="Adobe_OpacityMaskFilter_00000066515196268106142320000002007532345258195899_" filterUnits="userSpaceOnUse" x="468.1" y="273.3" width="14.2" height="21.5">
					<feColorMatrix  type="matrix" values="1 0 0 0 0  0 1 0 0 0  0 0 1 0 0  0 0 0 1 0"/>
				</filter>
			</defs>
			
				<mask maskUnits="userSpaceOnUse" x="468.1" y="273.3" width="14.2" height="21.5" id="mask-2_00000128477229908500990990000003616152661559391155_">
				<g style="filter:url(#Adobe_OpacityMaskFilter_00000066515196268106142320000002007532345258195899_);">
					<polygon id="path-1_00000053545833618667073860000010689874363528620430_" class="st2" points="0,596 841.9,596 841.9,0.7 
						0,0.7 					"/>
				</g>
			</mask>
			<polygon id="Fill-207" class="st9" points="468.1,273.3 469.7,273.3 469.7,293.4 482.3,293.4 482.3,294.9 468.1,294.9 			"/>
			<defs>
				
					<filter id="Adobe_OpacityMaskFilter_00000045581224583511634740000013598183025408333972_" filterUnits="userSpaceOnUse" x="387.6" y="302.5" width="15.2" height="21.5">
					<feColorMatrix  type="matrix" values="1 0 0 0 0  0 1 0 0 0  0 0 1 0 0  0 0 0 1 0"/>
				</filter>
			</defs>
			
				<mask maskUnits="userSpaceOnUse" x="387.6" y="302.5" width="15.2" height="21.5" id="mask-2_00000168097095987854112310000002957149123861385899_">
				<g style="filter:url(#Adobe_OpacityMaskFilter_00000045581224583511634740000013598183025408333972_);">
					<polygon id="path-1_00000102510301432274157000000003935145769417119631_" class="st2" points="0,596 841.9,596 841.9,0.7 
						0,0.7 					"/>
				</g>
			</mask>
			<polygon id="Fill-208" class="st11" points="387.6,302.5 402.8,302.5 402.8,304 389.2,304 389.2,312.8 401.4,312.8 401.4,314.3 
				389.2,314.3 389.2,324.1 387.6,324.1 			"/>
			<defs>
				
					<filter id="Adobe_OpacityMaskFilter_00000147943183761027945820000004303181752555061651_" filterUnits="userSpaceOnUse" x="409.9" y="302.5" width="14.2" height="21.5">
					<feColorMatrix  type="matrix" values="1 0 0 0 0  0 1 0 0 0  0 0 1 0 0  0 0 0 1 0"/>
				</filter>
			</defs>
			
				<mask maskUnits="userSpaceOnUse" x="409.9" y="302.5" width="14.2" height="21.5" id="mask-2_00000127018845653668757620000013563697645538491013_">
				<g style="filter:url(#Adobe_OpacityMaskFilter_00000147943183761027945820000004303181752555061651_);">
					<polygon id="path-1_00000180330574204080294820000007502895716269822890_" class="st2" points="0,596 841.9,596 841.9,0.7 
						0,0.7 					"/>
				</g>
			</mask>
			<polygon id="Fill-209" class="st13" points="409.9,302.5 411.5,302.5 411.5,322.6 424.1,322.6 424.1,324.1 409.9,324.1 			"/>
			<defs>
				
					<filter id="Adobe_OpacityMaskFilter_00000043457337392630780010000017145306557193872303_" filterUnits="userSpaceOnUse" x="430.2" y="302.4" width="21.6" height="21.7">
					<feColorMatrix  type="matrix" values="1 0 0 0 0  0 1 0 0 0  0 0 1 0 0  0 0 0 1 0"/>
				</filter>
			</defs>
			
				<mask maskUnits="userSpaceOnUse" x="430.2" y="302.4" width="21.6" height="21.7" id="mask-2_00000142166242412171178170000016981093060338226562_">
				<g style="filter:url(#Adobe_OpacityMaskFilter_00000043457337392630780010000017145306557193872303_);">
					<polygon id="path-1_00000108295253845975976500000009886030614332420790_" class="st2" points="0,596 841.9,596 841.9,0.7 
						0,0.7 					"/>
				</g>
			</mask>
			<path id="Fill-210" class="st15" d="M446.6,316.6l-5.7-12.5l-5.7,12.5H446.6z M440.2,302.4h1.5l10,21.7H450l-2.7-6h-12.7l-2.7,6
				h-1.7L440.2,302.4z"/>
			<defs>
				
					<filter id="Adobe_OpacityMaskFilter_00000177453362925856470860000007900201570654221444_" filterUnits="userSpaceOnUse" x="458.1" y="302.5" width="20.3" height="21.5">
					<feColorMatrix  type="matrix" values="1 0 0 0 0  0 1 0 0 0  0 0 1 0 0  0 0 0 1 0"/>
				</filter>
			</defs>
			
				<mask maskUnits="userSpaceOnUse" x="458.1" y="302.5" width="20.3" height="21.5" id="mask-2_00000068645636992404491480000009164637738535201705_">
				<g style="filter:url(#Adobe_OpacityMaskFilter_00000177453362925856470860000007900201570654221444_);">
					<polygon id="path-1_00000018223671037383349580000009289203564694716328_" class="st2" points="0,596 841.9,596 841.9,0.7 
						0,0.7 					"/>
				</g>
			</mask>
			<polygon id="Fill-211" class="st17" points="458.1,302.5 459.6,302.5 468.3,315.3 476.9,302.5 478.4,302.5 478.4,324.1 
				476.8,324.1 476.8,305.4 468.3,317.7 468.2,317.7 459.7,305.4 459.7,324.1 458.1,324.1 			"/>
			<defs>
				
					<filter id="Adobe_OpacityMaskFilter_00000054959309734434969340000017064283105736288181_" filterUnits="userSpaceOnUse" x="485.8" y="302.5" width="15.5" height="21.5">
					<feColorMatrix  type="matrix" values="1 0 0 0 0  0 1 0 0 0  0 0 1 0 0  0 0 0 1 0"/>
				</filter>
			</defs>
			
				<mask maskUnits="userSpaceOnUse" x="485.8" y="302.5" width="15.5" height="21.5" id="mask-2_00000043431913073475973170000005082535927110320805_">
				<g style="filter:url(#Adobe_OpacityMaskFilter_00000054959309734434969340000017064283105736288181_);">
					<polygon id="path-1_00000051348222452957621250000007913056625331968403_" class="st2" points="0,596 841.9,596 841.9,0.7 
						0,0.7 					"/>
				</g>
			</mask>
			<polygon id="Fill-212" class="st19" points="485.8,302.5 501.1,302.5 501.1,304 487.4,304 487.4,312.5 499.7,312.5 499.7,313.9 
				487.4,313.9 487.4,322.6 501.2,322.6 501.2,324.1 485.8,324.1 			"/>
			<defs>
				
					<filter id="Adobe_OpacityMaskFilter_00000029729748599729286370000008711797597429348487_" filterUnits="userSpaceOnUse" x="508.1" y="302.2" width="15.8" height="22.1">
					<feColorMatrix  type="matrix" values="1 0 0 0 0  0 1 0 0 0  0 0 1 0 0  0 0 0 1 0"/>
				</filter>
			</defs>
			
				<mask maskUnits="userSpaceOnUse" x="508.1" y="302.2" width="15.8" height="22.1" id="mask-2_00000183235277802554767720000007254206642446526850_">
				<g style="filter:url(#Adobe_OpacityMaskFilter_00000029729748599729286370000008711797597429348487_);">
					<polygon id="path-1_00000043418958722297317880000012810399519108318623_" class="st2" points="0,596 841.9,596 841.9,0.7 
						0,0.7 					"/>
				</g>
			</mask>
			<path id="Fill-213" class="st21" d="M508.1,320.9l1-1.2c2.4,2.2,4.6,3.2,7.7,3.2c3.2,0,5.4-1.8,5.4-4.3v-0.1
				c0-2.3-1.2-3.6-6.1-4.6c-5.2-1-7.3-2.8-7.3-6.1v-0.1c0-3.2,2.9-5.7,6.9-5.7c3.1,0,5.2,0.9,7.4,2.6l-1,1.3c-2-1.8-4.1-2.4-6.4-2.4
				c-3.2,0-5.3,1.8-5.3,4.1v0.1c0,2.3,1.2,3.7,6.3,4.7c5,1,7.1,2.8,7.1,5.9v0.1c0,3.5-3,5.9-7.1,5.9
				C513.3,324.4,510.7,323.2,508.1,320.9"/>
		</g>
	</g>
</g>
</svg>
