<?xml version="1.0" encoding="utf-8"?>
<!-- Generator: Adobe Illustrator 20.1.0, SVG Export Plug-In . SVG Version: 6.00 Build 0)  -->
<svg version="1.1" id="Ebene_1" xmlns="http://www.w3.org/2000/svg" xmlns:xlink="http://www.w3.org/1999/xlink" x="0px" y="0px"
	 viewBox="0 0 235 20" style="enable-background:new 0 0 235 20;" xml:space="preserve">
<style type="text/css">
	.st0{fill:#141413;}
</style>
<path class="st0" d="M217.8,19.7h4.3v-7.8h7.9v7.8h4.3V0.3H230V8h-7.9V0.3h-4.3V19.7z M207,20c3.8,0,6-1.3,8-3.5l-2.7-2.7
	c-1.5,1.4-2.9,2.3-5.1,2.3c-3.3,0-5.7-2.8-5.7-6.1V9.9c0-3.3,2.4-6,5.7-6c1.9,0,3.5,0.8,5,2.2l2.7-3.1c-1.8-1.8-4-3-7.7-3
	c-6,0-10.2,4.5-10.2,10v0.1C197,15.6,201.3,20,207,20 M183.8,11.6l2.6-6.3l2.6,6.3H183.8z M176.1,19.7h4.4l1.8-4.3h8.2l1.8,4.3h4.5
	l-8.4-19.5h-4L176.1,19.7z M171.4,13.8L171.4,13.8c0,1.5-1.1,2.2-3,2.2h-5.1v-4.3h5C170.4,11.7,171.4,12.5,171.4,13.8 M170.3,6.1
	c0,1.4-1.2,2-3.1,2h-4V4.1h4.2C169.3,4.1,170.3,4.8,170.3,6.1L170.3,6.1z M159.1,19.7h9.3c4.4,0,7.3-1.8,7.3-5.3v-0.1
	c0-2.6-1.4-3.9-3.6-4.8c1.4-0.8,2.6-2,2.6-4.2V5.3c0-1.3-0.4-2.4-1.3-3.3c-1.1-1.1-2.9-1.7-5.1-1.7h-9V19.7z M137.6,19.7h4.2V7.4
	l9.4,12.3h3.6V0.3h-4.2v11.9l-9.1-11.9h-4V19.7z M119.3,19.7h14.8v-3.8h-10.6v-4.1h9.2V8h-9.2V4.1H134V0.3h-14.7V19.7z M102.6,19.7
	h14v-3.9h-9.7V0.3h-4.3V19.7z M87.6,11.6l2.6-6.3l2.6,6.3H87.6z M79.9,19.7h4.4l1.8-4.3h8.2l1.8,4.3h4.5L92.2,0.2h-4L79.9,19.7z
	 M58.5,19.7h4.2V7.1l5.4,8.2h0.1L73.7,7v12.6H78V0.3h-4.6l-5.1,8.2l-5.1-8.2h-4.6V19.7z M38,19.7h4.3v-7.8h7.9v7.8h4.3V0.3h-4.3V8
	h-7.9V0.3H38V19.7z M27.5,20c3.8,0,6-1.3,8-3.5l-2.7-2.7c-1.5,1.4-2.9,2.3-5.1,2.3c-3.3,0-5.7-2.8-5.7-6.1V9.9c0-3.3,2.4-6,5.7-6
	c1.9,0,3.5,0.8,5,2.2L35.3,3c-1.8-1.8-4-3-7.7-3c-6,0-10.2,4.5-10.2,10v0.1C17.5,15.6,21.7,20,27.5,20 M8.3,19.9
	c4.2,0,7.2-2.2,7.2-6v-0.1c0-3.4-2.2-4.8-6.2-5.8C5.9,7.2,5,6.8,5,5.6V5.5c0-0.9,0.9-1.7,2.5-1.7s3.3,0.7,5.1,1.9l2.2-3.2
	c-2-1.6-4.4-2.5-7.2-2.5c-4,0-6.8,2.3-6.8,5.8v0.1c0,3.8,2.5,4.9,6.5,5.9c3.3,0.8,3.9,1.4,3.9,2.5v0.1c0,1.1-1.1,1.8-2.8,1.8
	c-2.2,0-4.1-0.9-5.8-2.3l-2.5,3C2.3,18.9,5.3,19.9,8.3,19.9"/>
</svg>
