<?xml version="1.0" encoding="UTF-8"?>
<svg width="332px" height="325px" viewBox="0 0 332 325" version="1.1" xmlns="http://www.w3.org/2000/svg" xmlns:xlink="http://www.w3.org/1999/xlink">
    <title>Group</title>
    <g id="Page-1" stroke="none" stroke-width="1" fill="none" fill-rule="evenodd">
        <g id="Desktop" transform="translate(-95.000000, -70.000000)" fill="#FFFFFF">
            <g id="Group" transform="translate(95.000000, 70.000000)">
                <path d="M125.444135,183 L147,205.186517 L130.370809,221.148415 C131.291549,214.79167 129.300038,208.095387 124.400222,203.213483 C120.605935,199.433067 115.736733,197.387189 110.779006,197.075849 L125.444135,183 Z" id="Combined-Shape"></path>
                <path d="M15.1176074,279.969785 L90.6891391,206.664299 C99.0011524,198.601525 112.27554,198.803574 120.338314,207.115587 C120.360051,207.137996 120.381737,207.160453 120.403373,207.182958 C128.475393,215.579222 128.242517,228.920772 119.882393,237.030215 L44.3108609,310.335701 C35.9988476,318.398475 22.7244599,318.196426 14.661686,309.884413 C14.6399495,309.862004 14.618263,309.839547 14.5966268,309.817042 C6.52460725,301.420778 6.75748255,288.079228 15.1176074,279.969785 Z" id="Rectangle"></path>
                <path d="M214.015735,107 C238.545641,107 258.958991,124.585875 263.282772,147.811232 C263.080264,148.930846 262.142732,149.695222 260.469395,150.104751 C258.315376,150.63192 256.791306,149.861442 255.897184,147.793315 L255.828343,147.857024 C251.63295,128.66749 234.506021,114.29927 214.015735,114.29927 C193.336961,114.29927 176.083705,128.933051 172.090639,148.387812 C171.172225,149.789228 169.804259,150.266692 167.988816,149.822384 C165.834796,149.295215 164.900033,148.180049 165.184526,146.476886 C165.133376,146.453716 165.082408,146.430661 165.031621,146.40772 C169.901122,123.880678 189.982689,107 214.015735,107 Z" id="Combined-Shape"></path>
                <path d="M219.5,0 C281.632034,0 332,50.144108 332,112 C332,173.855892 281.632034,224 219.5,224 C157.367966,224 107,173.855892 107,112 C107,50.144108 157.367966,0 219.5,0 Z M219.5,25 C171.175084,25 132,63.9512268 132,112 C132,160.048773 171.175084,199 219.5,199 C267.824916,199 307,160.048773 307,112 C307,63.9512268 267.824916,25 219.5,25 Z" id="Combined-Shape-Copy"></path>
                <path d="M229.729202,38.6381438 C266.000293,43.433812 294,74.6749715 294,112.5 C294,146.248977 271.709687,174.756595 241.142159,183.915072 C263.369194,168.934896 278,143.436345 278,114.5 C278,81.2966408 258.736066,52.6197189 230.838712,39.1637859 Z" id="Combined-Shape"></path>
                <path d="M214,55 C230.016258,55 243,67.9837423 243,84 C243,100.016258 230.016258,113 214,113 C197.983742,113 185,100.016258 185,84 C185,67.9837423 197.983742,55 214,55 Z M213.5,61 C201.073593,61 191,71.0735931 191,83.5 C191,95.9264069 201.073593,106 213.5,106 C225.926407,106 236,95.9264069 236,83.5 C236,71.0735931 225.926407,61 213.5,61 Z" id="Combined-Shape"></path>
            </g>
        </g>
    </g>
</svg>